%YAML 1.1
%TAG !u! tag:unity3d.com,2011:
--- !u!114 &11400000
MonoBehaviour:
  m_ObjectHideFlags: 0
  m_CorrespondingSourceObject: {fileID: 0}
  m_PrefabInstance: {fileID: 0}
  m_PrefabAsset: {fileID: 0}
  m_GameObject: {fileID: 0}
  m_Enabled: 1
  m_EditorHideFlags: 0
  m_Script: {fileID: 11500000, guid: 04ba249ff1034e445b6c31e8f4b454dc, type: 3}
  m_Name: LevelData0
  m_EditorClassIdentifier: 
  AvailableOperations: 00000000
  OperationsLimit: 1
  GameField: '1 1 1 1 1 1 1

    1 0 B 0 0 0 1

    1 0 0 0 0 0 1

    1 0 0 0 0
    0 1

    1 0 0 0 0 0 1

    1 0 A 0 0 0 1

    1 1 1 1 1 1 1'
